#list of runs for Matrix 112, unirradiated
#columns: runID - DUTSize (2x pixel size) - showPlots (0/1) - nBins - statLimit - startEventID - endEventID (0 when all should be read) - sysErrorPos - sysErrorNeg - thresholdFactor
          323     80                        0                 24      100         0              0                                        0.001         0.0           1.0
          324     80                        0                 24      100         0              0                                        0.001         0.0           1.0
