#list of runs for Matrix 129, irradiated to 1e15
#columns: runID - DUTSize (2x pixel size) - showPlots (0/1) - nBins - snrCut - usePosCorr - useExtDUTPos - startEventID - endEventID - matrix - irradLevel - selectionFalsNeg - sFNSysError - sFNExpError - manXposCorr - manYposCorr
          329     100                       0                 30      1        1            0              0              0            129      1            0.0                0.0           0.0           0.0           0.0
          352     100                       0                 30      1        1            0              0              0            129      1            0.0                0.0           0.0           0.0           0.0
          353     100                       0                 30      1        1            0              0              0            129      1            0.0                0.0           0.0           0.0           0.0
          373     100                       0                 30      1        1            0              0              0            129      1            0.0                0.0           0.0           0.0           0.0
          374     100                       0                 30      1        1            0              0              0            129      1            0.0                0.0           0.0           0.0           0.0
          450     100                       0                 30      1        1            0              0              0            129      1            0.0                0.0           0.0           0.0           0.0
          491     100                       0                 30      1        1            0              0              0            129      1            0.0                0.0           0.0           0.0           0.0
          501     100                       0                 30      1        1            0              0              0            129      1            0.0                0.0           0.0           0.0           0.0
          505     100                       0                 30      1        1            0              0              0            129      1            0.0                0.0           0.0           0.0           0.0
          512     100                       0                 30      1        1            0              0              0            129      1            0.0                0.0           0.0           0.0           0.0
          515     100                       0                 30      1        1            0              0              0            129      1            0.0                0.0           0.0           0.0           0.0
          521     100                       0                 30      1        1            0              0              0            129      1            0.0                0.0           0.0           0.0           0.0
          527     100                       0                 30      1        1            0              0              0            129      1            0.0                0.0           0.0           0.0           0.0
