#list of runs for Matrix 112, unirradiated
#columns: runID - DUTSize (2x pixel size) - showPlots (0/1) - nBins - snrCut - usePosCorr - useExtDUTPos - startEventID - endEventID - matrix - irradLevel - selectionFalsNeg - sFNSysError - sFNExpError - manXposCorr - manYposCorr
          323     80                        0                 24      1        1            0              0              0            112      0.0          0.0                0.0           0.0           0.0           0.0
          324     80                        0                 24      1        1            0              0              0            112      0.0          0.0                0.0           0.0           0.0           0.0
